﻿[
    { "text": "AudioSource", "value": "", "type": "Header" },
    { "text": "File/URL", "value": "", "type": "String", "bindto": "settings.sourcename" },
  {
    "text": "Analyse Duration",
    "value": "",
    "type": "Int32",
    "min": 0,
    "max": 20000,
    "bindto": "settings.analyzeduration"
  },
  {
    "text": "Loop",
    "value": "",
    "type": "Boolean",
    "bindto": "settings.loopfile"
  },
  {
    "text": "Decoder",
    "value": "",
    "type": "Select",
    "bindto": "settings.decoder",
    "options": [
      {
        "text": "FFMPEG",
        "value": "ffmpeg",
        "noTranslate": true
      },
      {
        "text": "VLC",
        "value": "vlc",
        "noTranslate": true
      }
    ],
    "help": ""
  },
  {
      "text": "Options",
      "value": "",
      "type": "TextArea",
      "bindto": "settings.ffmpegoptions"
  }
]
