﻿[
  {
    "text": "JPEG Source",
    "value": "",
    "type": "Header"
  },
  {
    "text": "Username",
    "value": "",
    "type": "String",
    "id": "txtCameraUsername",
    "bindto": "settings.login"
  },
  {
    "text": "Password",
    "value": "",
    "type": "Password",
    "id": "txtCameraPassword",
    "bindto": "settings.password"
  },
  {
    "text": "Live URL",
    "value": "",
    "type": "TextButton",
    "bindto": "settings.substream",
    "id": "txtVideoURL",
    "help": "",
    "action": "runwizard_live_jpeg"
  }
]

