﻿[
  {
    "text": "MJPEG Source",
    "value": "",
    "type": "Header"
  },
  {
    "text": "Username",
    "value": "",
    "type": "String",
    "bindto": "settings.login",
    "id": "txtCameraUsername"
  },
  {
    "text": "Password",
    "value": "",
    "type": "Password",
    "bindto": "settings.password",
    "id": "txtCameraPassword"
  },
  {
    "text": "Live URL",
    "value": "",
    "type": "TextButton",
    "id": "txtVideoURL",
    "action": "runwizard_live_mjpeg",
    "bindto": "settings.substream",
    "help": ""
  },
  {
    "text": "Record URL",
    "value": "",
    "type": "TextButton",
    "id": "txtRecordURL",
    "bindto": "settings.mainstream",
    "help": "",
    "action": "runwizard_record"
  }
]