﻿[
    { "text": "iSpyServer", "value": "", "type": "Header" },
    { "text": "URL", "value": "", "type": "String", "bindto": "settings.substream" },
    { "text": "Decode Key", "value": "", "type": "Password", "bindto": "decodekey" }
]