﻿[
  {
    "text": "ONVIF",
    "value": "",
    "type": "Header"
  },
  {
    "text": "Username",
    "value": "",
    "type": "String",
    "bindto": "settings.login",
    "id": "txtOnvifUsername"
  },
  {
    "text": "Password",
    "value": "",
    "type": "Password",
    "bindto": "settings.password",
    "id": "txtOnvifPassword"
  },
  {
    "text": "Service URL",
    "value": "",
    "type": "Typeahead",
    "bindto": "settings.onvifident",
    "help": "eg: http://192.168.1.233:8001/onvif/device_service",
    "id": "txtOnvifURL",
    "values": "DEVICES",
    "title": "Devices"
  },
  {
    "text": "RTSP Port Override",
    "value": "",
    "type": "Int32",
    "min": 0,
    "max": 65535,
    "bindto": "settings.onvif.rtspport",
    "id": "txtOnvifRTSPPort",
    "help": "Override the RTSP port (for external access, 0 = auto)"
  },
  {
    "text": "Timeout",
    "value": "",
    "type": "Int32",
    "min": 2,
    "max": 60,
    "bindto": "settings.onvif.timeout",
    "id": "txtOnvifTimeout"
  },
  {
    "text": "Discover",
    "value": "Get Video URLs",
    "type": "Button",
    "action": "onvifdiscover",
    "id": "btnOnvifDiscover"
  },
  {
    "text": "Live URL",
    "value": "",
    "type": "Select",
    "bindto": "settings.substream",
    "id": "ddlOnvifURLs",
    "options": "ONVIFURL",
    "help": ""
  },
  {
    "text": "Live URL Override",
    "value": "",
    "type": "String",
    "bindto": "settings.substreamoverride"
  },
  {
    "text": "Record URL",
    "value": "",
    "type": "Select",
    "bindto": "settings.mainstream",
    "id": "ddlOnvifURLs2",
    "options": "ONVIFURL2",
    "help": ""
  },
  {
    "text": "Record URL Override",
    "value": "",
    "type": "String",
    "bindto": "settings.mainstreamoverride"
  },
  {
    "text": "Use Snapshot",
    "value": "",
    "type": "Boolean",
    "bindto": "settings.onvif.usesnapshot"
  }
]
