﻿{
  "header": "Detector",
  "okResult": "UploadJSON",
  "name": "EditDetector",
  "sections": [
    {
      "header": "Detector",
      "displayType": "Form",
      "items": [
        {
          "text": "DetectorSimple",
          "value": "",
          "type": "DetectorViewManager",
          "help": "Detector View",
          "overlay": false
        },
        {
          "text": "Advanced",
          "value": "...",
          "type": "Button",
          "action": "editdetectoradv"
        },
        {
          "text": "Sensitivity",
          "value": [],
          "type": "Slider",
          "min": 1,
          "max": 100,
          "range": true,
          "bindto": "detector.minsensitivity,detector.maxsensitivity",
          "id": "arrSensitivity",
          "help": "This controls how much motion triggers the motion detector.",
          "live": true
        },
        {
          "text": "Gain",
          "value": 0,
          "type": "Decimal",
          "min": 0.000000001,
          "max": 99999999999,
          "bindto": "detector.gain",
          "help": "Multiplier for the motion detector.",
          "id": "numGain",
          "live": true
        }
      ]
    }
  ]
  }