﻿{
    "header": "Advanced",
    "okResult": "UploadJSON",
    "name": "EditDetector",
    "sections": [
        {
            "header": "Settings",
            "displayType": "Form",
          "items": [
            {
              "text": "DetectorAdvanced",
              "value": "",
              "type": "DetectorViewManager",
              "help": "Detector View",
              "overlay": false
            },
            {
              "text": "Analyzer",
              "value": "",
              "type": "Select",
              "bindto": "detector.backgroundSubtractor",
              "options": [
                {
                  "text": "CNT (fast)",
                  "value": "CNT",
                  "noTranslate": true
                }
              ],
              "live": true
            },
            {
              "text": "detectorframesize",
              "value": "0",
              "type": "Select",
              "bindto": "detector.framesizeindex",
              "options": [
                {
                  "text": "Small",
                  "value": 0
                },
                {
                  "text": "Medium",
                  "value": 1
                },
                {
                  "text": "Large",
                  "value": 2
                }
              ],
              "help": "Size of the motion frame",
              "live": true
            },
            {
              "text": "Tracker",
              "value": "",
              "type": "Select",
              "bindto": "detector.tracker",
              "options": "TRACKERS",
              "help": "See the userguide for more information",
              "live": true
            },
            {
              "text": "Track Max Objects",
              "value": 1,
              "type": "Slider",
              "range": false,
              "min": 1,
              "max": 10,
              "bindto": "detector.maxObjects",
              "help": "Maximum number of objects to track",
              "live": true
            },
            {
              "text": "Detect Interval",
              "value": 0,
              "type": "Int32",
              "min": 0,
              "max": 10000,
              "bindto": "detector.processinterval",
              "help": "ms delay between processing frames",
              "live": true
            },
            {
              "text": "Track Interval",
              "value": 0,
              "type": "Int32",
              "min": 0,
              "max": 1000,
              "bindto": "detector.trackinterval",
              "help": "ms delay between tracking objects",
              "live": true
            },
            {
              "text": "Pixel Stability",
              "value": [],
              "type": "Slider",
              "range": true,
              "min": 1,
              "max": 100,
              "bindto": "detector.minPixelStability,detector.maxPixelStability",
              "help": "Number of frames to consider pixel stable",
              "live": true
            },
            {
              "text": "Use History",
              "value": "",
              "type": "Boolean",
              "bindto": "detector.useHistory",
              "live": true
            },
            {
              "text": "Parallel Process",
              "value": "",
              "type": "Boolean",
              "bindto": "detector.parallelProcess",
              "live": true
            },
            {
              "text": "Tracking Timeout",
              "value": "",
              "type": "Slider",
              "range": false,
              "min": 1,
              "max": 15,
              "bindto": "detector.trackingTimeout",
              "help": "timeout (s)"
            },
            {
              "text": "Movement Timeout",
              "value": "",
              "type": "Slider",
              "range": false,
              "min": 1,
              "max": 15,
              "bindto": "detector.movementTimeout",
              "help": "timeout (s)"
            }
          ]
        }
    ]
}