﻿{
    "header": "Faces",
    "okResult": "",
    "name": "Faces",
    "sections": [
      {
        "header": "Faces",
        "tabActive": true,
        "hasCopy": false,
        "canEdit": false,
        "canAdd": true,
        "addJSON": "addFace",
        "displayType": "TableEdit",
        "ident": "Faces",
        "deleteJSON": "deleteFace",
        "items": "FACES"
      }
    ]
}